<?xml version="1.0" encoding="UTF-8"?>
<svg width="21px" height="19px" viewBox="0 0 21 19" version="1.1" xmlns="http://www.w3.org/2000/svg" xmlns:xlink="http://www.w3.org/1999/xlink">
    <!-- Generator: Sketch 48.2 (47327) - http://www.bohemiancoding.com/sketch -->
    <title>Linkedin</title>
    <desc>Created with Sketch.</desc>
    <defs></defs>
    <g id="Home-Copy" stroke="none" stroke-width="1" fill="none" fill-rule="evenodd" transform="translate(-1048.000000, -6143.000000)">
        <g id="Linkedin" transform="translate(1048.000000, 6143.000000)" fill="#A7ABBD" fill-rule="nonzero">
            <g id="LinkedIn-color">
                <g id="Color-">
                    <path d="M21,18.8429752 L16.3585227,18.8429752 L16.3585227,12.2187273 C16.3585227,10.4851736 15.6330682,9.30136364 14.0361136,9.30136364 C12.81525,9.30136364 12.1360909,10.1003058 11.8201364,10.8700413 C11.7012955,11.1460909 11.7199091,11.5309587 11.7199091,11.9158264 L11.7199091,18.8429752 L7.12186364,18.8429752 C7.12186364,18.8429752 7.18104545,7.10898347 7.12186364,6.04247107 L11.7199091,6.04247107 L11.7199091,8.05160331 C11.9919545,7.17304959 13.461,5.91952066 15.8053636,5.91952066 C18.7143409,5.91952066 21,7.76047934 21,11.7255124 L21,18.8429752 Z M2.47227273,4.44128926 L2.44220455,4.44128926 C0.96075,4.44128926 0,3.46286777 0,2.22252893 C0,0.958165289 0.988909091,0 2.50043182,0 C4.01052273,0 4.93929545,0.955809917 4.96840909,2.21876033 C4.96840909,3.45909917 4.01052273,4.44128926 2.47227273,4.44128926 Z M0.529772727,6.04247107 L4.62286364,6.04247107 L4.62286364,18.8429752 L0.529772727,18.8429752 L0.529772727,6.04247107 Z" id="LinkedIn"></path>
                </g>
            </g>
        </g>
    </g>
</svg>