<?xml version="1.0" encoding="UTF-8"?>
<svg width="94px" height="99px" viewBox="0 0 94 99" version="1.1" xmlns="http://www.w3.org/2000/svg" xmlns:xlink="http://www.w3.org/1999/xlink">
    <!-- Generator: Sketch 49.2 (51160) - http://www.bohemiancoding.com/sketch -->
    <title>credible_minds</title>
    <desc>Created with Sketch.</desc>
    <defs>
        <linearGradient x1="116.910201%" y1="-23.7207451%" x2="0%" y2="112.92697%" id="linearGradient-1">
            <stop stop-color="#E52D78" offset="0%"></stop>
            <stop stop-color="#E52D78" offset="24.6761901%"></stop>
            <stop stop-color="#4C2970" offset="92.6768316%"></stop>
            <stop stop-color="#4C2970" offset="92.6768316%"></stop>
            <stop stop-color="#4C2970" offset="92.6768316%"></stop>
            <stop stop-color="#4C2970" offset="92.6768316%"></stop>
            <stop stop-color="#4C2970" offset="92.6768316%"></stop>
            <stop stop-color="#4A2970" offset="100%"></stop>
        </linearGradient>
        <linearGradient x1="-3.11680902%" y1="-59.2256443%" x2="155.958533%" y2="169.122047%" id="linearGradient-2">
            <stop stop-color="#E52D78" offset="0%"></stop>
            <stop stop-color="#E52D78" offset="41.6995358%"></stop>
            <stop stop-color="#4A2970" offset="100%"></stop>
        </linearGradient>
        <linearGradient x1="127.515968%" y1="-96.1967306%" x2="-36.8230289%" y2="153.547988%" id="linearGradient-3">
            <stop stop-color="#E52D78" offset="0%"></stop>
            <stop stop-color="#E52D78" offset="56.8416234%"></stop>
            <stop stop-color="#4A2970" offset="100%"></stop>
        </linearGradient>
        <linearGradient x1="-130.382787%" y1="-250.217332%" x2="109.357257%" y2="131.102799%" id="linearGradient-4">
            <stop stop-color="#E52D78" offset="0%"></stop>
            <stop stop-color="#E52D78" offset="17.3011939%"></stop>
            <stop stop-color="#E52D78" offset="19.1672653%"></stop>
            <stop stop-color="#E52D78" offset="19.1672653%"></stop>
            <stop stop-color="#E52D78" offset="56.8416234%"></stop>
            <stop stop-color="#4A2970" offset="100%"></stop>
        </linearGradient>
        <linearGradient x1="-60.3447041%" y1="49.0326077%" x2="207.958526%" y2="50%" id="linearGradient-5">
            <stop stop-color="#E52D78" offset="0%"></stop>
            <stop stop-color="#E52D78" offset="0%"></stop>
            <stop stop-color="#E52D78" offset="42.656758%"></stop>
            <stop stop-color="#4A2970" offset="100%"></stop>
        </linearGradient>
        <linearGradient x1="-84.7406828%" y1="-69.4435116%" x2="142.560774%" y2="100%" id="linearGradient-6">
            <stop stop-color="#E52D78" offset="0%"></stop>
            <stop stop-color="#E52D78" offset="56.8416234%"></stop>
            <stop stop-color="#4A2970" offset="100%"></stop>
        </linearGradient>
        <linearGradient x1="-164.134655%" y1="-458.383362%" x2="109.357257%" y2="131.102799%" id="linearGradient-7">
            <stop stop-color="#E52D78" offset="0%"></stop>
            <stop stop-color="#E52D78" offset="56.8416234%"></stop>
            <stop stop-color="#4A2970" offset="100%"></stop>
        </linearGradient>
    </defs>
    <g id="Page-1" stroke="none" stroke-width="1" fill="none" fill-rule="evenodd" opacity="0.881157156">
        <g id="credible_minds" transform="translate(0.000000, -1.000000)">
            <g id="notebook" transform="translate(25.519027, 24.339076)" fill="url(#linearGradient-1)" fill-rule="nonzero">
                <path d="M39.436,0 L37.433,0 L30.433,0 L0.433,0 L0.433,17.007 L0.433,37.007 L0.433,53.996 L4.433,53.996 L4.433,59.864 L8.433,57.198 L12.433,59.864 L12.433,53.996 L30.433,53.996 L37.433,53.996 L39.436,53.996 C41.64,53.996 43.433,52.203 43.433,50 L43.433,37.007 L43.433,17.007 L43.433,3.996 C43.432,1.793 41.639,0 39.436,0 Z M10.432,56.128 L8.432,54.794 L6.432,56.128 L6.432,53.996 L10.432,53.996 L10.432,56.128 Z M31.432,14 L31.432,17.007 L31.432,37.007 L31.432,41 L31.432,51.996 L12.432,51.996 L4.432,51.996 L2.432,51.996 L2.432,37.007 L30.432,37.007 L30.432,17.007 L2.432,17.007 L2.432,2 L31.432,2 L31.432,14 Z M41.432,17.007 L37.432,17.007 L37.432,37.007 L41.432,37.007 L41.432,50 C41.432,51.101 40.536,51.996 39.435,51.996 L36.432,51.996 L36.432,41 L36.432,37.007 L36.432,17.007 L36.432,14 L36.432,2 L39.435,2 C40.536,2 41.432,2.896 41.432,3.996 L41.432,17.007 Z" id="Shape"></path>
            </g>
            <g transform="translate(0.519027, 0.388746)">
                <rect id="Rectangle-14" fill="url(#linearGradient-2)" transform="translate(9.180836, 26.901178) rotate(-45.000000) translate(-9.180836, -26.901178) " x="7.11183669" y="24.8321783" width="4.13799857" height="4.13799857"></rect>
                <rect id="Rectangle-14-Copy-2" fill="url(#linearGradient-3)" transform="translate(87.281371, 28.803124) rotate(-45.000000) translate(-87.281371, -28.803124) " x="83.0333536" y="24.5551072" width="8.49603458" height="8.49603458"></rect>
                <circle id="Oval-5" fill="url(#linearGradient-4)" cx="3.65350923" cy="74.3996241" r="3.34789538"></circle>
                <circle id="Oval-5-Copy-4" fill="url(#linearGradient-5)" cx="46.0517928" cy="2.46736096" r="1.67394769"></circle>
                <circle id="Oval-5-Copy" fill="url(#linearGradient-6)" cx="39.0657587" cy="97.0919572" r="2.13595729"></circle>
                <circle id="Oval-5-Copy-3" fill="url(#linearGradient-7)" cx="80.1393847" cy="78.9660703" r="1.46637821"></circle>
            </g>
        </g>
    </g>
</svg>