<?xml version="1.0" encoding="UTF-8"?>
<svg width="69px" height="58px" viewBox="0 0 69 58" version="1.1" xmlns="http://www.w3.org/2000/svg" xmlns:xlink="http://www.w3.org/1999/xlink">
    <!-- Generator: Sketch 49.2 (51160) - http://www.bohemiancoding.com/sketch -->
    <title>house</title>
    <desc>Created with Sketch.</desc>
    <defs>
        <linearGradient x1="116.910201%" y1="-23.7207451%" x2="0%" y2="112.92697%" id="linearGradient-1">
            <stop stop-color="#E52D78" offset="0%"></stop>
            <stop stop-color="#E52D78" offset="24.6761901%"></stop>
            <stop stop-color="#4C2970" offset="92.6768316%"></stop>
            <stop stop-color="#4C2970" offset="92.6768316%"></stop>
            <stop stop-color="#4C2970" offset="92.6768316%"></stop>
            <stop stop-color="#4C2970" offset="92.6768316%"></stop>
            <stop stop-color="#4C2970" offset="92.6768316%"></stop>
            <stop stop-color="#4A2970" offset="100%"></stop>
        </linearGradient>
    </defs>
    <g id="Page-1" stroke="none" stroke-width="1" fill="none" fill-rule="evenodd" opacity="0.881157156">
        <g id="house" transform="translate(0.888310, 0.665177)" fill="url(#linearGradient-1)" fill-rule="nonzero">
            <path d="M67.1038786,29.1472005 C66.7107569,28.2930852 65.6994903,27.919425 64.8448885,28.3125467 C62.0409772,29.6035719 58.8852998,29.4967771 56.2120236,28.0692783 C57.1809616,20.3411285 53.7484448,12.6696603 47.251233,8.26528634 C42.5916705,5.10693302 36.954899,4.03484928 31.623186,5.06752354 L25.5249343,0.469021429 C24.918223,0.0111903453 24.0811365,0.0111903453 23.4744252,0.469021429 L0.677745695,17.6598245 C-0.0732237812,18.2261533 -0.222833832,19.2938582 0.343251678,20.0448276 C0.909337189,20.7955538 1.97704209,20.9454072 2.72801157,20.3790784 L24.4995581,3.9616255 L27.5844444,6.28800098 C26.7471147,6.63684783 25.9260839,7.04043007 25.1288934,7.50361306 C24.5859184,7.2871042 23.9577995,7.35619242 23.4744252,7.72085172 L0.677745695,24.9116548 C0.251052964,25.2332556 1.33226763e-15,25.7365778 1.33226763e-15,26.2710385 L1.33226763e-15,55.21438 C1.33226763e-15,56.1548556 0.76240309,56.9172586 1.70287863,56.9172586 L47.2964809,56.9172586 C48.2369565,56.9172586 48.9993595,56.1548556 48.9993595,55.21438 L48.9993595,33.0107888 C50.842604,32.5729057 52.6396275,31.8791043 54.3378841,30.9298711 C56.3295223,32.0547441 58.5320741,32.6264248 60.7514115,32.6264248 C62.6177665,32.6264248 64.4960416,32.2228425 66.2692248,31.4064339 C67.1235834,31.0128256 67.4970003,30.001559 67.1038786,29.1472005 Z M27.2886301,53.5115014 L21.7109727,53.5115014 L21.7109727,41.1631986 L27.2886301,41.1631986 L27.2886301,53.5115014 Z M30.6943873,53.5115014 L30.6943873,39.46032 C30.6943873,38.5198445 29.9319842,37.7574414 28.9915087,37.7574414 L20.0080941,37.7574414 C19.0676186,37.7574414 18.3052155,38.5198445 18.3052155,39.46032 L18.3052155,53.5115014 L3.40575726,53.5115014 L3.40575726,27.1198018 L23.4075264,12.036676 C23.1535542,19.1225972 26.5400933,25.9435992 32.5198732,29.9971802 C36.0360743,32.3807237 40.1076571,33.5766311 44.1860515,33.5766311 C44.6553162,33.5766311 45.1248241,33.5603321 45.5936023,33.5284639 L45.5936023,53.5115014 L30.6943873,53.5112581 L30.6943873,53.5115014 Z M34.4309896,27.1784295 C28.9299618,23.4496118 26.0533133,16.9198021 26.9670293,10.3746664 C32.7079197,7.10197697 39.8388456,7.35570588 45.3401166,11.0850101 C50.2942771,14.4430867 53.1183797,20.0730468 52.963661,25.9397069 L37.9586243,15.7684129 C37.1801655,15.241007 36.1212183,15.4441361 35.5935692,16.2225949 C35.06592,17.0010537 35.2692924,18.060001 36.0477512,18.5876501 L51.0527879,28.7589441 C45.6605011,31.0751023 39.3849068,30.5367494 34.4309896,27.1784295 Z" id="Shape"></path>
        </g>
    </g>
</svg>